EESchema Schematic File Version 4
EELAYER 30 0
EELAYER END
$Descr User 8500 5500
encoding utf-8
Sheet 1 1
Title "Simple LM317-based charger"
Date "2023-03-26"
Rev ""
Comp ""
Comment1 ""
Comment2 ""
Comment3 ""
Comment4 ""
$EndDescr
$Comp
L Regulator_Linear:LM317_TO-220 U?
U 1 1 64210CDE
P 4100 1000
F 0 "U?" H 4100 1242 50  0000 C CNN
F 1 "LM317_TO-220" H 4100 1151 50  0000 C CNN
F 2 "Package_TO_SOT_THT:TO-220-3_Vertical" H 4100 1250 50  0001 C CIN
F 3 "http://www.ti.com/lit/ds/symlink/lm317.pdf" H 4100 1000 50  0001 C CNN
	1    4100 1000
	1    0    0    -1  
$EndComp
$Comp
L Device:CP C1
U 1 1 6421108B
P 2200 2000
F 0 "C1" H 2318 2046 50  0000 L CNN
F 1 "100μF" H 2318 1955 50  0000 L CNN
F 2 "" H 2238 1850 50  0001 C CNN
F 3 "~" H 2200 2000 50  0001 C CNN
	1    2200 2000
	1    0    0    -1  
$EndComp
$Comp
L Device:LED D1
U 1 1 64211507
P 2950 2500
F 0 "D1" V 2989 2382 50  0000 R CNN
F 1 "LED" V 2898 2382 50  0000 R CNN
F 2 "" H 2950 2500 50  0001 C CNN
F 3 "~" H 2950 2500 50  0001 C CNN
	1    2950 2500
	0    -1   -1   0   
$EndComp
$Comp
L Device:R R1
U 1 1 64211B6D
P 2950 1700
F 0 "R1" H 3020 1746 50  0000 L CNN
F 1 "3,3k" H 3020 1655 50  0000 L CNN
F 2 "" V 2880 1700 50  0001 C CNN
F 3 "~" H 2950 1700 50  0001 C CNN
	1    2950 1700
	1    0    0    -1  
$EndComp
$Comp
L Device:R R2
U 1 1 64211FCA
P 4400 1650
F 0 "R2" V 4193 1650 50  0000 C CNN
F 1 "2,2k" V 4284 1650 50  0000 C CNN
F 2 "" V 4330 1650 50  0001 C CNN
F 3 "~" H 4400 1650 50  0001 C CNN
	1    4400 1650
	0    1    1    0   
$EndComp
$Comp
L Device:CP C2
U 1 1 642121D0
P 5100 1650
F 0 "C2" H 5218 1696 50  0000 L CNN
F 1 "10μF" H 5218 1605 50  0000 L CNN
F 2 "" H 5138 1500 50  0001 C CNN
F 3 "~" H 5100 1650 50  0001 C CNN
	1    5100 1650
	1    0    0    -1  
$EndComp
$Comp
L Device:R R4
U 1 1 64212F44
P 5900 2400
F 0 "R4" H 5970 2446 50  0000 L CNN
F 1 "680" H 5970 2355 50  0000 L CNN
F 2 "" V 5830 2400 50  0001 C CNN
F 3 "~" H 5900 2400 50  0001 C CNN
	1    5900 2400
	1    0    0    -1  
$EndComp
$Comp
L Device:R R3
U 1 1 6421340A
P 4700 2450
F 0 "R3" H 4770 2496 50  0000 L CNN
F 1 "1k" H 4770 2405 50  0000 L CNN
F 2 "" V 4630 2450 50  0001 C CNN
F 3 "~" H 4700 2450 50  0001 C CNN
	1    4700 2450
	1    0    0    -1  
$EndComp
$Comp
L Device:R_POT RV1
U 1 1 64213A4A
P 4100 2200
F 0 "RV1" H 4030 2246 50  0000 R CNN
F 1 "10k" H 4030 2155 50  0000 R CNN
F 2 "" H 4100 2200 50  0001 C CNN
F 3 "~" H 4100 2200 50  0001 C CNN
	1    4100 2200
	1    0    0    -1  
$EndComp
$Comp
L Device:Q_NPN_CBE Q1
U 1 1 64214641
P 3850 2950
F 0 "Q1" H 4041 2996 50  0000 L CNN
F 1 "BC 548" H 4041 2905 50  0000 L CNN
F 2 "" H 4050 3050 50  0001 C CNN
F 3 "~" H 3850 2950 50  0001 C CNN
	1    3850 2950
	-1   0    0    -1  
$EndComp
$Comp
L Device:D_Schottky D2
U 1 1 64214BC6
P 5500 1000
F 0 "D2" H 5500 783 50  0000 C CNN
F 1 "1N 5819" H 5500 874 50  0000 C CNN
F 2 "" H 5500 1000 50  0001 C CNN
F 3 "~" H 5500 1000 50  0001 C CNN
	1    5500 1000
	-1   0    0    1   
$EndComp
$Comp
L Device:Battery_Cell BT1
U 1 1 64215B23
P 5900 1600
F 0 "BT1" H 6018 1696 50  0000 L CNN
F 1 "ML2032" H 6018 1605 50  0000 L CNN
F 2 "" V 5900 1660 50  0001 C CNN
F 3 "~" V 5900 1660 50  0001 C CNN
	1    5900 1600
	1    0    0    -1  
$EndComp
$Comp
L power:VCC #PWR?
U 1 1 6421714A
P 1850 1000
F 0 "#PWR?" H 1850 850 50  0001 C CNN
F 1 "VCC" H 1865 1173 50  0000 C CNN
F 2 "" H 1850 1000 50  0001 C CNN
F 3 "" H 1850 1000 50  0001 C CNN
	1    1850 1000
	1    0    0    -1  
$EndComp
$Comp
L power:GND #PWR?
U 1 1 64217968
P 1850 3300
F 0 "#PWR?" H 1850 3050 50  0001 C CNN
F 1 "GND" H 1855 3127 50  0000 C CNN
F 2 "" H 1850 3300 50  0001 C CNN
F 3 "" H 1850 3300 50  0001 C CNN
	1    1850 3300
	1    0    0    -1  
$EndComp
Wire Wire Line
	1850 1000 2200 1000
Wire Wire Line
	2200 1850 2200 1000
Connection ~ 2200 1000
Wire Wire Line
	2200 1000 2950 1000
Wire Wire Line
	2950 1550 2950 1000
Wire Wire Line
	4400 1000 4650 1000
Wire Wire Line
	4550 1650 4650 1650
Wire Wire Line
	4650 1650 4650 1000
Connection ~ 4650 1000
Wire Wire Line
	4650 1000 5100 1000
Wire Wire Line
	4250 1650 4100 1650
Wire Wire Line
	4100 1650 4100 1300
Wire Wire Line
	4100 1650 4100 2050
Connection ~ 4100 1650
Wire Wire Line
	5100 1500 5100 1000
Connection ~ 5100 1000
Wire Wire Line
	5100 1000 5350 1000
Wire Wire Line
	2950 1000 3800 1000
Connection ~ 2950 1000
Wire Wire Line
	3750 2750 3750 1650
Wire Wire Line
	3750 1650 4100 1650
$Comp
L Device:R R4
U 1 1 6424D31E
P 4350 2950
F 0 "R4" V 4143 2950 50  0000 C CNN
F 1 "100" V 4234 2950 50  0000 C CNN
F 2 "" V 4280 2950 50  0001 C CNN
F 3 "~" H 4350 2950 50  0001 C CNN
	1    4350 2950
	0    1    1    0   
$EndComp
Wire Wire Line
	4200 2950 4050 2950
Wire Wire Line
	4700 2200 4700 2300
Wire Wire Line
	4250 2200 4700 2200
Wire Wire Line
	4500 2950 4700 2950
Wire Wire Line
	4700 2950 4700 2600
Wire Wire Line
	5650 1000 5900 1000
Wire Wire Line
	5900 1000 5900 1400
Wire Wire Line
	5100 1800 5100 3250
Wire Wire Line
	5100 3250 3750 3250
Wire Wire Line
	3750 3150 3750 3250
Connection ~ 3750 3250
Wire Wire Line
	1850 3250 1850 3300
Wire Wire Line
	1850 3250 2200 3250
Wire Wire Line
	2200 2150 2200 3250
Connection ~ 2200 3250
Wire Wire Line
	2200 3250 2950 3250
Wire Wire Line
	2950 2650 2950 3250
Connection ~ 2950 3250
Wire Wire Line
	2950 3250 3750 3250
Wire Wire Line
	2950 1850 2950 2350
Wire Wire Line
	5900 1700 5900 2000
Wire Wire Line
	5900 3250 5100 3250
Connection ~ 5100 3250
Text Notes 800  1200 0    50   ~ 0
VCC should be around 12V DC.
Text Notes 6250 2500 0    50   ~ 0
R4 controls the maximum current.\nIn this case: less than 2 mA.
Text Notes 4150 2050 0    50   ~ 0
RV1 is used to adjust\nthe charging voltage.
Wire Wire Line
	5900 2550 5900 3250
Wire Wire Line
	5900 2000 5500 2000
Wire Wire Line
	5500 2000 5500 2950
Wire Wire Line
	5500 2950 4700 2950
Connection ~ 5900 2000
Wire Wire Line
	5900 2000 5900 2250
Connection ~ 4700 2950
$EndSCHEMATC
